<?xml version="1.0" encoding="utf-8"?>
<!-- Generator: Adobe Illustrator 19.2.0, SVG Export Plug-In . SVG Version: 6.00 Build 0)  -->
<svg version="1.1" id="Layer_1" xmlns="http://www.w3.org/2000/svg" xmlns:xlink="http://www.w3.org/1999/xlink" x="0px" y="0px"
	 viewBox="0 0 492.5 453.7" style="enable-background:new 0 0 492.5 453.7;" xml:space="preserve">
<style type="text/css">
	.st0{fill:#4F4F4F;}
</style>
<title>gitlab</title>
<path class="st0" d="M491.5,259.5l-27.6-84.8L409.4,6.5c-1.6-4.9-6.9-7.7-11.8-6.1c-0.4,0.1-0.8,0.3-1.2,0.5c-2.3,1.1-4,3.2-4.8,5.6
	L337,174.6H155.5L112.4,42L100.9,6.5L100.3,5c-0.9-1.8-2.4-3.2-4.2-4.1C92.6-0.7,88.5,0,85.6,2.5h-0.1c-1.1,1.1-2,2.4-2.4,3.9
	L28.4,174.6l-13.2,40.9l-14.3,44c-1.8,5.6-0.9,11.8,2.5,16.6c1.2,1.7,2.6,3.2,4.3,4.4l238.5,173.2l238.5-173.3
	C491.3,275.6,494.1,267.2,491.5,259.5z M155.5,174.6l90.7,279.1L28.4,174.6L155.5,174.6z M336.9,174.6H464L246.2,453.7L336.9,174.6z
	"/>
</svg>
